{
"tracks":[
{
"faved_by_current_user":true,"buy_link":"http://click.linksynergy.com/fs-bin/stat?id=1Cx7A22HMKA&offerid=146261&type=3&subid=0&tmpid=1826&RD_PARM1=http%253A%252F%252Fax.search.itunes.apple.com%252FWebObjects%252FMZSearch.woa%252Fwa%252FadvancedSearch%253FallArtistNames%253DYellowcard%2526completeTitle%253DOne%252520Year%252C%252520Six%252520Months%2526media%253Dmusic","buy_icon":"http://8tracks.com/images/icon/buy_icon.itunes.png","track_file_stream_url":"http://cft.8tracks.com/tf/026/587/232/BGi9Hj.48k.v3.m4a","user_id":616207,"fp_title":"One Year, Six Months","fp_performer":"Yellowcard","id":5872923,"name":"One Year, Six Months","performer":"Yellowcard","release_name":"Ocean Avenue","url":"http://8track}
,
{
"faved_by_current_user":true,"buy_link":"http://click.linksynergy.com/fs-bin/stat?id=1Cx7A22HMKA&offerid=146261&type=3&subid=0&tmpid=1826&RD_PARM1=http%253A%252F%252Fax.search.itunes.apple.com%252FWebObjects%252FMZSearch.woa%252Fwa%252FadvancedSearch%253FallArtistNames%253DCity%252BAnd%252BColour%2526completeTitle%253DThe%252520Girl%2526media%253Dmusic","buy_icon":"http://8tracks.com/images/icon/buy_icon.itunes.png","track_file_stream_url":"http://cft.8tracks.com/tf/000/149/521/wcLQM9.48k.v3.m4a","user_id":494617,"fp_title":"The Girl","fp_performer":"City and Colour","id":5064575,"name":"The Girl","performer":"City And Colour","release_name":"Bring Me Your Love","url":"http://8tracks.com/tracks/5064575","}
,
{
"faved_by_current_user":true,"buy_link":"http://click.linksynergy.com/fs-bin/stat?id=1Cx7A22HMKA&offerid=146261&type=3&subid=0&tmpid=1826&RD_PARM1=http%253A%252F%252Fax.search.itunes.apple.com%252FWebObjects%252FMZSearch.woa%252Fwa%252FadvancedSearch%253FallArtistNames%253DThe%252BBlack%252BKeys%2526completeTitle%253DLonely%252520Boy%2526media%253Dmusic","buy_icon":"http://8tracks.com/images/icon/buy_icon.itunes.png","track_file_stream_url":"http://cft.8tracks.com/tf/028/232/556/Pi61L2.48k.v3.m4a","user_id":230364,"fp_title":"Lonely Boy","fp_performer":"The Black Keys","id":6585164,"name":"Lonely Boy","performer":"The Black Keys","release_name":"El Camino","url":"http://8tracks.com/tracks/6585164","year":}
,
{
"faved_by_current_user":true,"buy_link":"http://click.linksynergy.com/fs-bin/stat?id=1Cx7A22HMKA&offerid=146261&type=3&subid=0&tmpid=1826&RD_PARM1=http%253A%252F%252Fax.search.itunes.apple.com%252FWebObjects%252FMZSearch.woa%252Fwa%252FadvancedSearch%253FallArtistNames%253DThe%252BNaked%252Band%252BFamous%2526completeTitle%253DYoung%252520Blood%2526media%253Dmusic","buy_icon":"http://8tracks.com/images/icon/buy_icon.itunes.png","track_file_stream_url":"http://8tracks.s3.amazonaws.com/tf/028/779/114/80610.mp3","user_id":230364,"fp_title":"Young Blood","fp_performer":"The Naked and Famous","id":6663612,"name":"Young Blood","performer":"The Naked and Famous","release_name":"Passive Me, Aggressive You","url":}
,
{
"faved_by_current_user":true,"buy_link":"http://click.linksynergy.com/fs-bin/stat?id=1Cx7A22HMKA&offerid=146261&type=3&subid=0&tmpid=1826&RD_PARM1=http%253A%252F%252Fax.search.itunes.apple.com%252FWebObjects%252FMZSearch.woa%252Fwa%252FadvancedSearch%253FallArtistNames%253DM83%2526completeTitle%253DMidnight%252520City%2526media%253Dmusic","buy_icon":"http://8tracks.com/images/icon/buy_icon.itunes.png","track_file_stream_url":"http://cft.8tracks.com/tf/028/481/169/CyFNzz.48k.v3.m4a","user_id":230364,"fp_title":"Midnight City","fp_performer":"M83","id":6585878,"name":"Midnight City","performer":"M83","release_name":"Hurry Up, We're Dreaming","url":"http://8tracks.com/tracks/6585878","year":2011,"uid":658587}
,
{
"faved_by_current_user":true,"buy_link":"http://click.linksynergy.com/fs-bin/stat?id=1Cx7A22HMKA&offerid=146261&type=3&subid=0&tmpid=1826&RD_PARM1=http%253A%252F%252Fax.search.itunes.apple.com%252FWebObjects%252FMZSearch.woa%252Fwa%252FadvancedSearch%253FallArtistNames%253DTwo%252BDoor%252BCinema%252BClub%2526completeTitle%253DUndercover%252520Martyn%2526media%253Dmusic","buy_icon":"http://8tracks.com/images/icon/buy_icon.itunes.png","track_file_stream_url":"http://cft.8tracks.com/tf/028/481/240/yYE17s.48k.v3.m4a","user_id":230364,"fp_title":"Undercover Martyn","fp_performer":"Two Door Cinema Club","id":6585923,"name":"Undercover Martyn","performer":"Two Door Cinema Club","release_name":"Tourist History",}
,
{
"faved_by_current_user":true,"buy_link":"http://click.linksynergy.com/fs-bin/stat?id=1Cx7A22HMKA&offerid=146261&type=3&subid=0&tmpid=1826&RD_PARM1=http%253A%252F%252Fax.search.itunes.apple.com%252FWebObjects%252FMZSearch.woa%252Fwa%252FadvancedSearch%253FallArtistNames%253Dfun.%2526completeTitle%253DWe%252520Are%252520Young%252520%2528feat%252520Janelle%252520Mon%2525C3%2525A1e%2529%2526media%253Dmusic","buy_icon":"http://8tracks.com/images/icon/buy_icon.itunes.png","track_file_stream_url":"http://cft.8tracks.com/tf/028/479/611/98RMKJ.48k.v3.m4a","user_id":230364,"fp_title":"We Are Young (feat. Janelle Monáe)","fp_performer":"fun.","id":6585125,"name":"We Are Young (feat Janelle Monáe)","performer":"fun."}
,
{
"faved_by_current_user":true,"buy_link":"http://click.linksynergy.com/fs-bin/stat?id=1Cx7A22HMKA&offerid=146261&type=3&subid=0&tmpid=1826&RD_PARM1=http%253A%252F%252Fax.search.itunes.apple.com%252FWebObjects%252FMZSearch.woa%252Fwa%252FadvancedSearch%253FallArtistNames%253DHusky%2526completeTitle%253DHunter%2526media%253Dmusic","buy_icon":"http://8tracks.com/images/icon/buy_icon.itunes.png","track_file_stream_url":"http://cft.8tracks.com/tf/026/668/264/uyIvrj.48k.v3.m4a","user_id":568249,"fp_title":"Hunter","fp_performer":"Husky","id":5910323,"name":"Hunter","performer":"Husky","release_name":"Forever So","url":"http://8tracks.com/tracks/5910323","year":2011,"uid":5910323
}
,
{
"faved_by_current_user":true,"buy_link":"http://click.linksynergy.com/fs-bin/stat?id=1Cx7A22HMKA&offerid=146261&type=3&subid=0&tmpid=1826&RD_PARM1=http%253A%252F%252Fax.search.itunes.apple.com%252FWebObjects%252FMZSearch.woa%252Fwa%252FadvancedSearch%253FallArtistNames%253DNeil%252BDegrasse%252BTyson%2526completeTitle%253DThe%252520Most%252520Astounding%252520Fact%2526media%253Dmusic","buy_icon":"http://8tracks.com/images/icon/buy_icon.itunes.png","track_file_stream_url":"http://cft.8tracks.com/tf/029/735/630/uY8uEW.48k.v3.m4a","user_id":833187,"fp_title":"The Most Astounding Fact","fp_performer":"Neil Degrasse Tyson","id":7118727,"name":"The Most Astounding Fact","performer":"Neil Degrasse Tyson","releas}
,
{
"faved_by_current_user":true,"buy_link":"http://click.linksynergy.com/fs-bin/stat?id=1Cx7A22HMKA&offerid=146261&type=3&subid=0&tmpid=1826&RD_PARM1=http%253A%252F%252Fax.search.itunes.apple.com%252FWebObjects%252FMZSearch.woa%252Fwa%252FadvancedSearch%253FallArtistNames%253DThe%252BGlitch%252BMob%2526completeTitle%253DBetween%252520Two%252520Points%252520feat.%252520Swan%2526media%253Dmusic","buy_icon":"http://8tracks.com/images/icon/buy_icon.itunes.png","track_file_stream_url":"http://cft.8tracks.com/tf/018/095/517/53s0hr.48k.v3.m4a","user_id":210438,"fp_title":"Between Two Points (feat. Swan)","fp_performer":"The Glitch Mob","id":5834201,"name":"Between Two Points feat. Swan","performer":"The Glitch Mob"}
,
{
"faved_by_current_user":true,"buy_link":"http://click.linksynergy.com/fs-bin/stat?id=1Cx7A22HMKA&offerid=146261&type=3&subid=0&tmpid=1826&RD_PARM1=http%253A%252F%252Fax.search.itunes.apple.com%252FWebObjects%252FMZSearch.woa%252Fwa%252FadvancedSearch%253FallArtistNames%253DThe%252BPaper%252BKites%2526completeTitle%253DBloom%2526media%253Dmusic","buy_icon":"http://8tracks.com/images/icon/buy_icon.itunes.png","track_file_stream_url":"http://cft.8tracks.com/tf/003/092/810/qV9IEV.48k.v3.m4a","user_id":568249,"fp_title":"Bloom","fp_performer":"The Paper Kites","id":5603936,"name":"Bloom","performer":"The Paper Kites","release_name":"Bloom Single","url":"http://8tracks.com/tracks/5603936","year":null,"uid":5603}
,
{
"faved_by_current_user":true,"buy_link":"http://click.linksynergy.com/fs-bin/stat?id=1Cx7A22HMKA&offerid=146261&type=3&subid=0&tmpid=1826&RD_PARM1=http%253A%252F%252Fax.search.itunes.apple.com%252FWebObjects%252FMZSearch.woa%252Fwa%252FadvancedSearch%253FallArtistNames%253DRadical%252BFace%2526completeTitle%253DWelcome%252520Home%252C%252520Son%2526media%253Dmusic","buy_icon":"http://8tracks.com/images/icon/buy_icon.itunes.png","track_file_stream_url":"http://cft.8tracks.com/tf/000/144/131/QcaEVZ.48k.v3.m4a","user_id":568249,"fp_title":"Welcome Home, Son","fp_performer":"Radical Face","id":5604279,"name":"Welcome Home, Son","performer":"Radical Face","release_name":"Ghost","url":"http://8tracks.com/tracks}
,
{
"faved_by_current_user":true,"buy_link":"http://click.linksynergy.com/fs-bin/stat?id=1Cx7A22HMKA&offerid=146261&type=3&subid=0&tmpid=1826&RD_PARM1=http%253A%252F%252Fax.search.itunes.apple.com%252FWebObjects%252FMZSearch.woa%252Fwa%252FadvancedSearch%253FallArtistNames%253DViolent%252BFemmes%2526completeTitle%253DBlister%252520In%252520The%252520Sun%2526media%253Dmusic","buy_icon":"http://8tracks.com/images/icon/buy_icon.itunes.png","track_file_stream_url":"http://cft.8tracks.com/tf/004/115/803/ACgit2.48k.v3.m4a","user_id":393783,"fp_title":"Blister in the Sun","fp_performer":"Violent Femmes","id":4115803,"name":"Blister In The Sun","performer":"Violent Femmes","release_name":"Grosse Pointe Blank","url":"}
,
{
"faved_by_current_user":true,"buy_link":"http://click.linksynergy.com/fs-bin/stat?id=1Cx7A22HMKA&offerid=146261&type=3&subid=0&tmpid=1826&RD_PARM1=http%253A%252F%252Fax.search.itunes.apple.com%252FWebObjects%252FMZSearch.woa%252Fwa%252FadvancedSearch%253FallArtistNames%253DPhoenix%2526completeTitle%253DToo%252520Young%2526media%253Dmusic","buy_icon":"http://8tracks.com/images/icon/buy_icon.itunes.png","track_file_stream_url":"http://cft.8tracks.com/tf/004/115/845/nAcUHS.48k.v3.m4a","user_id":393783,"fp_title":"Too Young","fp_performer":"Phoenix","id":4115845,"name":"Too Young","performer":"Phoenix","release_name":"Lost In Translation","url":"http://8tracks.com/tracks/4115845","year":2000,"uid":4115845
}
,
{
"faved_by_current_user":true,"buy_link":"http://click.linksynergy.com/fs-bin/stat?id=1Cx7A22HMKA&offerid=146261&type=3&subid=0&tmpid=1826&RD_PARM1=http%253A%252F%252Fax.search.itunes.apple.com%252FWebObjects%252FMZSearch.woa%252Fwa%252FadvancedSearch%253FallArtistNames%253DTears%252BFor%252BFears%2526completeTitle%253DHead%252520Over%252520Heels%2526media%253Dmusic","buy_icon":"http://8tracks.com/images/icon/buy_icon.itunes.png","track_file_stream_url":"http://cft.8tracks.com/tf/004/115/881/fkwAfP.48k.v3.m4a","user_id":393783,"fp_title":"Head Over Heels","fp_performer":"Tears for Fears","id":4115881,"name":"Head Over Heels","performer":"Tears For Fears","release_name":"Donnie Darko","url":"http://8tracks.}
,
{
"faved_by_current_user":true,"buy_link":"http://itunes.apple.com/gb/album/starry-eyed-ep/id353960860","buy_icon":"http://8tracks.com/images/icon/buy_icon.itunes.png","track_file_stream_url":"http://cft.8tracks.com/tf/004/711/799/6oiumL.48k.v3.m4a","user_id":617724,"fp_title":"Starry Eyed","fp_performer":"Ellie Goulding","id":6452145,"name":"Starry Eyed","performer":"Ellie Goulding","release_name":"Starry Eyed- Single","url":"http://8tracks.com/tracks/6452145","year":2010,"uid":6452145
}
,
{
"faved_by_current_user":true,"buy_link":"http://itunes.apple.com/us/album/tourist-history/id365973067","buy_icon":"http://8tracks.com/images/icon/buy_icon.itunes.png","track_file_stream_url":"http://cft.8tracks.com/tf/003/810/896/riJ1mc.48k.v3.m4a","user_id":617724,"fp_title":"What You Know","fp_performer":"Two Door Cinema Club","id":6452078,"name":"What You Know","performer":"Two Door Cinema Club","release_name":"Tourist History","url":"http://8tracks.com/tracks/6452078","year":2010,"uid":6452078
}
,
{
"faved_by_current_user":true,"buy_link":"http://click.linksynergy.com/fs-bin/stat?id=1Cx7A22HMKA&offerid=146261&type=3&subid=0&tmpid=1826&RD_PARM1=http%253A%252F%252Fax.search.itunes.apple.com%252FWebObjects%252FMZSearch.woa%252Fwa%252FadvancedSearch%253FallArtistNames%253DWalk%252Bthe%252BMoon%2526completeTitle%253DAnna%252520Sun%2526media%253Dmusic","buy_icon":"http://8tracks.com/images/icon/buy_icon.itunes.png","track_file_stream_url":"http://cft.8tracks.com/tf/028/403/885/pmy37y.48k.v3.m4a","user_id":617724,"fp_title":"Anna Sun","fp_performer":"Walk the Moon","id":6542891,"name":"Anna Sun","performer":"Walk the Moon","release_name":"Anna Sun EP","url":"http://8tracks.com/tracks/6542891","year":2012,"u}
,
{
"faved_by_current_user":true,"buy_link":"http://click.linksynergy.com/fs-bin/stat?id=1Cx7A22HMKA&offerid=146261&type=3&subid=0&tmpid=1826&RD_PARM1=http%253A%252F%252Fax.search.itunes.apple.com%252FWebObjects%252FMZSearch.woa%252Fwa%252FadvancedSearch%253FallArtistNames%253DGotye%2526completeTitle%253DSomebody%252520I%252520Used%252520To%252520Know%2526media%253Dmusic","buy_icon":"http://8tracks.com/images/icon/buy_icon.itunes.png","track_file_stream_url":"http://cft.8tracks.com/tf/028/365/057/cV5hRS.48k.v3.m4a","user_id":448564,"fp_title":"Somebody I Used To Know","fp_performer":"Gotye","id":6521626,"name":"Somebody I Used To Know","performer":"Gotye","release_name":"Gotye","url":"http://8tracks.com/track}
,
{
"faved_by_current_user":true,"buy_link":"http://click.linksynergy.com/fs-bin/stat?id=1Cx7A22HMKA&offerid=146261&type=3&subid=0&tmpid=1826&RD_PARM1=http%253A%252F%252Fax.search.itunes.apple.com%252FWebObjects%252FMZSearch.woa%252Fwa%252FadvancedSearch%253FallArtistNames%253DSnow%252BPatrol%2526completeTitle%253DWhat%252520If%252520This%252520Storm%252520Ends%253F%2526media%253Dmusic","buy_icon":"http://8tracks.com/images/icon/buy_icon.itunes.png","track_file_stream_url":"http://cft.8tracks.com/tf/024/237/534/RLyhT8.48k.v3.m4a","user_id":616207,"fp_title":"What If This Storm Ends?","fp_performer":"Snow Patrol","id":5734505,"name":"What If This Storm Ends?","performer":"Snow Patrol","release_name":"A Hundred}
],"page":1,"per_page":20,"next_page":2,"previous_page":null,"total_entries":84,"path":"/users/532219/favorite_tracks.json","status":"200 OK","errors":null,"notices":null,"logged_in":true,"api_warning":["You didn't pass an API version, defaulting to api_version=2."],"api_version":2
}