{ "api_warning" : "You must use a valid API key. You can pass it as a parameter named 'api_key'.\nJust go to http://8tracks.com/developers to get one.",
  "errors" : null,
  "id" : 16468,
  "logged_in" : false,
  "mixes" : [ { "cover_urls" : { "max133w" : "/images/mix_covers/max133w.gif",
            "max200" : "/images/mix_covers/max200.gif",
            "original" : "/images/mix_covers/original.gif",
            "sq100" : "/images/mix_covers/sq100.gif",
            "sq133" : "/images/mix_covers/sq133.gif",
            "sq56" : "/images/mix_covers/sq56.gif"
          },
        "description" : "Twelve tracks including music by Digitalism, Foster the People, and Parov Stelar.",
        "first_published_at" : "2011-08-20T12:05:15Z",
        "id" : 374698,
        "liked_by_current_user" : false,
        "name" : "happy mood",
        "path" : "/exorj/happy-mood",
        "plays_count" : 0,
        "published" : true,
        "restful_url" : "http://8tracks.com/mixes/374698",
        "slug" : "happy-mood",
        "tag_list_cache" : "lounge, house, indie rock",
        "user" : { "avatar_urls" : { "max200" : "http://cf1.8tracks.us/avatars/000/520/709/3382.max200.jpg",
                "sq100" : "http://cf1.8tracks.us/avatars/000/520/709/3382.sq100.jpg",
                "sq56" : "http://cf1.8tracks.us/avatars/000/520/709/3382.sq56.jpg",
                "sq72" : "http://cf1.8tracks.us/avatars/000/520/709/3382.sq72.jpg"
              },
            "followed_by_current_user" : false,
            "id" : 520709,
            "login" : "Exorj",
            "slug" : "exorj"
          }
      },
      { "cover_urls" : { "max133w" : "http://cf2.8tracks.us/mix_covers/000/364/318/17042.max133w.jpg",
            "max200" : "http://cf2.8tracks.us/mix_covers/000/364/318/17042.max200.jpg",
            "original" : "http://cf2.8tracks.us/mix_covers/000/364/318/17042.original.jpg",
            "sq100" : "http://cf2.8tracks.us/mix_covers/000/364/318/17042.sq100.jpg",
            "sq133" : "http://cf2.8tracks.us/mix_covers/000/364/318/17042.sq133.jpg",
            "sq56" : "http://cf2.8tracks.us/mix_covers/000/364/318/17042.sq56.jpg"
          },
        "description" : "With swagger to spare. Eight tracks including music by Bonobo, Amon Tobin, and Quantic.",
        "first_published_at" : "2011-08-19T04:33:50Z",
        "id" : 364318,
        "liked_by_current_user" : false,
        "name" : "\"Bitches love cereal\"",
        "path" : "/porkins/bitches-love-cereal",
        "plays_count" : 173,
        "published" : true,
        "restful_url" : "http://8tracks.com/mixes/364318",
        "slug" : "bitches-love-cereal",
        "tag_list_cache" : "chill, trip-hop, lounge, instrumental, electronic",
        "user" : { "avatar_urls" : { "max200" : "http://cf3.8tracks.us/avatars/000/286/067/27764.max200.jpg",
                "sq100" : "http://cf3.8tracks.us/avatars/000/286/067/27764.sq100.jpg",
                "sq56" : "http://cf3.8tracks.us/avatars/000/286/067/27764.sq56.jpg",
                "sq72" : "http://cf3.8tracks.us/avatars/000/286/067/27764.sq72.jpg"
              },
            "followed_by_current_user" : false,
            "id" : 286067,
            "login" : "Porkins",
            "slug" : "porkins"
          }
      },
      { "cover_urls" : { "max133w" : "/images/mix_covers/max133w.gif",
            "max200" : "/images/mix_covers/max200.gif",
            "original" : "/images/mix_covers/original.gif",
            "sq100" : "/images/mix_covers/sq100.gif",
            "sq133" : "/images/mix_covers/sq133.gif",
            "sq56" : "/images/mix_covers/sq56.gif"
          },
        "description" : "Take as prescribed. May cause sleepiness, bouts of deep thought, and the feeling that you can float. Discontinue use if you become energetic, overly excited, or you develop a skin rash.  Nine tracks including music by Mogwai, Bag Raiders, and Mooncake.",
        "first_published_at" : "2011-08-19T00:48:05Z",
        "id" : 373757,
        "liked_by_current_user" : false,
        "name" : "800mg Chill Pill",
        "path" : "/mojorader/800mg-chill-pill",
        "plays_count" : 6,
        "published" : true,
        "restful_url" : "http://8tracks.com/mixes/373757",
        "slug" : "800mg-chill-pill",
        "tag_list_cache" : "electronic, lounge, indie rock, chill, smoking",
        "user" : { "avatar_urls" : { "max200" : "/images/avatars/max200.jpg",
                "sq100" : "/images/avatars/sq100.jpg",
                "sq56" : "/images/avatars/sq56.jpg",
                "sq72" : "/images/avatars/sq72.jpg"
              },
            "followed_by_current_user" : false,
            "id" : 415230,
            "login" : "mojorader",
            "slug" : "mojorader"
          }
      },
      { "cover_urls" : { "max133w" : "http://cf1.8tracks.us/mix_covers/000/373/401/23637.max133w.jpg",
            "max200" : "http://cf1.8tracks.us/mix_covers/000/373/401/23637.max200.jpg",
            "original" : "http://cf1.8tracks.us/mix_covers/000/373/401/23637.original.jpg",
            "sq100" : "http://cf1.8tracks.us/mix_covers/000/373/401/23637.sq100.jpg",
            "sq133" : "http://cf1.8tracks.us/mix_covers/000/373/401/23637.sq133.jpg",
            "sq56" : "http://cf1.8tracks.us/mix_covers/000/373/401/23637.sq56.jpg"
          },
        "description" : "",
        "first_published_at" : "2011-08-18T14:07:14Z",
        "id" : 373401,
        "liked_by_current_user" : false,
        "name" : "がんばれ！！タグチくん！！2011夏",
        "path" : "/cbw/2011",
        "plays_count" : 5,
        "published" : true,
        "restful_url" : "http://8tracks.com/mixes/373401",
        "slug" : "2011",
        "tag_list_cache" : "muzak, lounge, chill",
        "user" : { "avatar_urls" : { "max200" : "/images/avatars/max200.jpg",
                "sq100" : "/images/avatars/sq100.jpg",
                "sq56" : "/images/avatars/sq56.jpg",
                "sq72" : "/images/avatars/sq72.jpg"
              },
            "followed_by_current_user" : false,
            "id" : 12148,
            "login" : "cbw",
            "slug" : "cbw"
          }
      },
      { "cover_urls" : { "max133w" : "http://cf3.8tracks.us/mix_covers/000/372/655/92049.max133w.jpg",
            "max200" : "http://cf3.8tracks.us/mix_covers/000/372/655/92049.max200.jpg",
            "original" : "http://cf3.8tracks.us/mix_covers/000/372/655/92049.original.png",
            "sq100" : "http://cf3.8tracks.us/mix_covers/000/372/655/92049.sq100.jpg",
            "sq133" : "http://cf3.8tracks.us/mix_covers/000/372/655/92049.sq133.jpg",
            "sq56" : "http://cf3.8tracks.us/mix_covers/000/372/655/92049.sq56.jpg"
          },
        "description" : "Eight tracks including music by AIR, Backini, and Bebel Gilberto.",
        "first_published_at" : "2011-08-17T15:20:12Z",
        "id" : 372655,
        "liked_by_current_user" : false,
        "name" : "mr_bom's mix no.1",
        "path" : "/mr_bom/mr_bom-s-mix-no-1",
        "plays_count" : 18,
        "published" : true,
        "restful_url" : "http://8tracks.com/mixes/372655",
        "slug" : "mr_bom-s-mix-no-1",
        "tag_list_cache" : "chill, bossa, funk, electronic, lounge",
        "user" : { "avatar_urls" : { "max200" : "http://cf0.8tracks.us/avatars/000/516/928/82345.max200.jpg",
                "sq100" : "http://cf0.8tracks.us/avatars/000/516/928/82345.sq100.jpg",
                "sq56" : "http://cf0.8tracks.us/avatars/000/516/928/82345.sq56.jpg",
                "sq72" : "http://cf0.8tracks.us/avatars/000/516/928/82345.sq72.jpg"
              },
            "followed_by_current_user" : false,
            "id" : 516928,
            "login" : "mr_bom",
            "slug" : "mr_bom"
          }
      },
      { "cover_urls" : { "max133w" : "http://cf1.8tracks.us/mix_covers/000/372/465/30372.max133w.jpg",
            "max200" : "http://cf1.8tracks.us/mix_covers/000/372/465/30372.max200.jpg",
            "original" : "http://cf1.8tracks.us/mix_covers/000/372/465/30372.original.jpg",
            "sq100" : "http://cf1.8tracks.us/mix_covers/000/372/465/30372.sq100.jpg",
            "sq133" : "http://cf1.8tracks.us/mix_covers/000/372/465/30372.sq133.jpg",
            "sq56" : "http://cf1.8tracks.us/mix_covers/000/372/465/30372.sq56.jpg"
          },
        "description" : "I'd like to sit down on an Eames chair and listen to these songs again and again..",
        "first_published_at" : "2011-08-17T07:43:34Z",
        "id" : 372465,
        "liked_by_current_user" : false,
        "name" : "Nu-kiss",
        "path" : "/biscuit_girl/nu-kiss",
        "plays_count" : 30,
        "published" : true,
        "restful_url" : "http://8tracks.com/mixes/372465",
        "slug" : "nu-kiss",
        "tag_list_cache" : "nu-jazz/funk, lo-fi, lounge, trip-hop, acid jazz",
        "user" : { "avatar_urls" : { "max200" : "http://cf2.8tracks.us/avatars/000/189/398/1358.max200.jpg",
                "sq100" : "http://cf2.8tracks.us/avatars/000/189/398/1358.sq100.jpg",
                "sq56" : "http://cf2.8tracks.us/avatars/000/189/398/1358.sq56.jpg",
                "sq72" : "http://cf2.8tracks.us/avatars/000/189/398/1358.sq72.jpg"
              },
            "followed_by_current_user" : false,
            "id" : 189398,
            "login" : "biscuit_girl",
            "slug" : "biscuit_girl"
          }
      },
      { "cover_urls" : { "max133w" : "http://cf1.8tracks.us/mix_covers/000/371/817/58677.max133w.jpg",
            "max200" : "http://cf1.8tracks.us/mix_covers/000/371/817/58677.max200.jpg",
            "original" : "http://cf1.8tracks.us/mix_covers/000/371/817/58677.original.jpg",
            "sq100" : "http://cf1.8tracks.us/mix_covers/000/371/817/58677.sq100.jpg",
            "sq133" : "http://cf1.8tracks.us/mix_covers/000/371/817/58677.sq133.jpg",
            "sq56" : "http://cf1.8tracks.us/mix_covers/000/371/817/58677.sq56.jpg"
          },
        "description" : "Eight tracks including music by Alif Tree, Parov Stelar, and Gotye.",
        "first_published_at" : "2011-08-16T17:56:08Z",
        "id" : 371817,
        "liked_by_current_user" : false,
        "name" : "Glide VI",
        "path" : "/gorkem_cu/glide-vi",
        "plays_count" : 44,
        "published" : true,
        "restful_url" : "http://8tracks.com/mixes/371817",
        "slug" : "glide-vi",
        "tag_list_cache" : "lo-fi, electronic, nu jazz, lounge",
        "user" : { "avatar_urls" : { "max200" : "http://cf1.8tracks.us/avatars/000/470/637/93688.max200.jpg",
                "sq100" : "http://cf1.8tracks.us/avatars/000/470/637/93688.sq100.jpg",
                "sq56" : "http://cf1.8tracks.us/avatars/000/470/637/93688.sq56.jpg",
                "sq72" : "http://cf1.8tracks.us/avatars/000/470/637/93688.sq72.jpg"
              },
            "followed_by_current_user" : false,
            "id" : 470637,
            "login" : "gorkem_cu",
            "slug" : "gorkem_cu"
          }
      },
      { "cover_urls" : { "max133w" : "http://cf0.8tracks.us/mix_covers/000/371/604/96863.max133w.jpg",
            "max200" : "http://cf0.8tracks.us/mix_covers/000/371/604/96863.max200.jpg",
            "original" : "http://cf0.8tracks.us/mix_covers/000/371/604/96863.original.jpg",
            "sq100" : "http://cf0.8tracks.us/mix_covers/000/371/604/96863.sq100.jpg",
            "sq133" : "http://cf0.8tracks.us/mix_covers/000/371/604/96863.sq133.jpg",
            "sq56" : "http://cf0.8tracks.us/mix_covers/000/371/604/96863.sq56.jpg"
          },
        "description" : "Fourteen tracks including music by Air, Amurai & Sean Ryan, and Bob Dylan. \r\nThe cover picture shows cupcakes and that is the sort of image that adorns mixes with Indie, chill and folk music. This is none of that, but some beautiful, unique sounds nevertheless. I just love cupcakes.",
        "first_published_at" : "2011-08-16T12:59:24Z",
        "id" : 371604,
        "liked_by_current_user" : false,
        "name" : "My Favourite Stuff",
        "path" : "/rebeccajoseph1/my-favourite-stuff",
        "plays_count" : 20,
        "published" : true,
        "restful_url" : "http://8tracks.com/mixes/371604",
        "slug" : "my-favourite-stuff",
        "tag_list_cache" : "trip hop, chill, lounge",
        "user" : { "avatar_urls" : { "max200" : "/images/avatars/max200.jpg",
                "sq100" : "/images/avatars/sq100.jpg",
                "sq56" : "/images/avatars/sq56.jpg",
                "sq72" : "/images/avatars/sq72.jpg"
              },
            "followed_by_current_user" : false,
            "id" : 508737,
            "login" : "RebeccaJoseph1",
            "slug" : "rebeccajoseph1"
          }
      },
      { "cover_urls" : { "max133w" : "http://cf0.8tracks.us/mix_covers/000/370/592/76209.max133w.jpg",
            "max200" : "http://cf0.8tracks.us/mix_covers/000/370/592/76209.max200.jpg",
            "original" : "http://cf0.8tracks.us/mix_covers/000/370/592/76209.original.jpg",
            "sq100" : "http://cf0.8tracks.us/mix_covers/000/370/592/76209.sq100.jpg",
            "sq133" : "http://cf0.8tracks.us/mix_covers/000/370/592/76209.sq133.jpg",
            "sq56" : "http://cf0.8tracks.us/mix_covers/000/370/592/76209.sq56.jpg"
          },
        "description" : "\"If you think you understand everything that is going on, you are hopelessly confused.\" Music to lay back on your bed, stop thinking and just breath!\r\nTen tracks including music by Paco de Lucia, Stan Getz and Chill n' Soda.",
        "first_published_at" : "2011-08-15T01:21:35Z",
        "id" : 370592,
        "liked_by_current_user" : false,
        "name" : "Sleep Songs",
        "path" : "/bayona_2008/sleep-songs",
        "plays_count" : 137,
        "published" : true,
        "restful_url" : "http://8tracks.com/mixes/370592",
        "slug" : "sleep-songs",
        "tag_list_cache" : "jazz, lounge, chill, sleep, relax",
        "user" : { "avatar_urls" : { "max200" : "http://cf1.8tracks.us/avatars/000/345/577/65144.max200.jpg",
                "sq100" : "http://cf1.8tracks.us/avatars/000/345/577/65144.sq100.jpg",
                "sq56" : "http://cf1.8tracks.us/avatars/000/345/577/65144.sq56.jpg",
                "sq72" : "http://cf1.8tracks.us/avatars/000/345/577/65144.sq72.jpg"
              },
            "followed_by_current_user" : false,
            "id" : 345577,
            "login" : "bayona_2008",
            "slug" : "bayona_2008"
          }
      },
      { "cover_urls" : { "max133w" : "http://cf0.8tracks.us/mix_covers/000/370/492/80157.max133w.jpg",
            "max200" : "http://cf0.8tracks.us/mix_covers/000/370/492/80157.max200.jpg",
            "original" : "http://cf0.8tracks.us/mix_covers/000/370/492/80157.original.jpg",
            "sq100" : "http://cf0.8tracks.us/mix_covers/000/370/492/80157.sq100.jpg",
            "sq133" : "http://cf0.8tracks.us/mix_covers/000/370/492/80157.sq133.jpg",
            "sq56" : "http://cf0.8tracks.us/mix_covers/000/370/492/80157.sq56.jpg"
          },
        "description" : "Fourteen tracks including music by Bon Iver, Stereophonics and Coldplay.",
        "first_published_at" : "2011-08-14T23:05:08Z",
        "id" : 370492,
        "liked_by_current_user" : false,
        "name" : "Love and Stuff",
        "path" : "/shaayde/love-and-stuff",
        "plays_count" : 36,
        "published" : true,
        "restful_url" : "http://8tracks.com/mixes/370492",
        "slug" : "love-and-stuff",
        "tag_list_cache" : "indie rock, lounge, love, happiness",
        "user" : { "avatar_urls" : { "max200" : "/images/avatars/max200.jpg",
                "sq100" : "/images/avatars/sq100.jpg",
                "sq56" : "/images/avatars/sq56.jpg",
                "sq72" : "/images/avatars/sq72.jpg"
              },
            "followed_by_current_user" : false,
            "id" : 473673,
            "login" : "Shaayde",
            "slug" : "shaayde"
          }
      },
      { "cover_urls" : { "max133w" : "http://cf0.8tracks.us/mix_covers/000/370/360/46925.max133w.jpg",
            "max200" : "http://cf0.8tracks.us/mix_covers/000/370/360/46925.max200.jpg",
            "original" : "http://cf0.8tracks.us/mix_covers/000/370/360/46925.original.jpg",
            "sq100" : "http://cf0.8tracks.us/mix_covers/000/370/360/46925.sq100.jpg",
            "sq133" : "http://cf0.8tracks.us/mix_covers/000/370/360/46925.sq133.jpg",
            "sq56" : "http://cf0.8tracks.us/mix_covers/000/370/360/46925.sq56.jpg"
          },
        "description" : "a mix that will orgasmically chill you out.",
        "first_published_at" : "2011-08-14T20:01:54Z",
        "id" : 370360,
        "liked_by_current_user" : false,
        "name" : "Journey Into The Night",
        "path" : "/outofroutine/journey-into-the-night",
        "plays_count" : 60,
        "published" : true,
        "restful_url" : "http://8tracks.com/mixes/370360",
        "slug" : "journey-into-the-night",
        "tag_list_cache" : "psybient, chill out, lounge, sleep, downtempo",
        "user" : { "avatar_urls" : { "max200" : "http://cf3.8tracks.us/avatars/000/283/979/41194.max200.jpg",
                "sq100" : "http://cf3.8tracks.us/avatars/000/283/979/41194.sq100.jpg",
                "sq56" : "http://cf3.8tracks.us/avatars/000/283/979/41194.sq56.jpg",
                "sq72" : "http://cf3.8tracks.us/avatars/000/283/979/41194.sq72.jpg"
              },
            "followed_by_current_user" : false,
            "id" : 283979,
            "login" : "outofroutine",
            "slug" : "outofroutine"
          }
      },
      { "cover_urls" : { "max133w" : "http://cf0.8tracks.us/mix_covers/000/369/584/64665.max133w.jpg",
            "max200" : "http://cf0.8tracks.us/mix_covers/000/369/584/64665.max200.jpg",
            "original" : "http://cf0.8tracks.us/mix_covers/000/369/584/64665.original.jpg",
            "sq100" : "http://cf0.8tracks.us/mix_covers/000/369/584/64665.sq100.jpg",
            "sq133" : "http://cf0.8tracks.us/mix_covers/000/369/584/64665.sq133.jpg",
            "sq56" : "http://cf0.8tracks.us/mix_covers/000/369/584/64665.sq56.jpg"
          },
        "description" : "A second jazz-y & lounge-y mix to make you feel warm and comfortable. Nine tracks including music by Bonobo, Gabin, and Dusty Springfield.",
        "first_published_at" : "2011-08-13T17:45:09Z",
        "id" : 369584,
        "liked_by_current_user" : false,
        "name" : "Get in a groove, improve your mood. Part two.",
        "path" : "/sayyeahagain/get-in-a-groove-improve-your-mood-part-two",
        "plays_count" : 52,
        "published" : true,
        "restful_url" : "http://8tracks.com/mixes/369584",
        "slug" : "get-in-a-groove-improve-your-mood-part-two",
        "tag_list_cache" : "lounge, trip-hop, acid jazz, jazz, tango",
        "user" : { "avatar_urls" : { "max200" : "http://cf3.8tracks.us/avatars/000/405/515/10560.max200.jpg",
                "sq100" : "http://cf3.8tracks.us/avatars/000/405/515/10560.sq100.jpg",
                "sq56" : "http://cf3.8tracks.us/avatars/000/405/515/10560.sq56.jpg",
                "sq72" : "http://cf3.8tracks.us/avatars/000/405/515/10560.sq72.jpg"
              },
            "followed_by_current_user" : false,
            "id" : 405515,
            "login" : "sayYEAHagain",
            "slug" : "sayyeahagain"
          }
      }
    ],
  "next_page" : 2,
  "notices" : null,
  "page" : 1,
  "path" : "/mix_sets/16468",
  "per_page" : 12,
  "previous_page" : null,
  "restful_url" : "http://8tracks.com/mix_sets/16468",
  "status" : "200 OK",
  "total_entries" : 838,
  "total_pages" : 70
}