{"reviews":[
	{"user":
		{"id":147093,
		"login":"Shenroniu",
		"slug":"shenroniu",
		"path":"/shenroniu",
		"restful_url":"http://8tracks.com/users/147093",
		"avatar_urls":
			{"sq56":"http://cf1.8tracks.us/avatars/000/147/093/63476.sq56.jpg","sq72":"http://cf1.8tracks.us/avatars/000/147/093/63476.sq72.jpg","sq100":"http://cf1.8tracks.us/avatars/000/147/093/63476.sq100.jpg","max200":"http://cf1.8tracks.us/avatars/000/147/093/63476.max200.jpg"
			}
		},
		"id":195411,
		"body":"I was so looking for a mix like this, its hard to find around here <3",
		"body_html":"<p>I was so looking for a mix like this, its hard to find around here &lt;3</p>",
		"created_at":"2011-01-22T01:21:15Z",
		"mix_id":14,
		"user_id":147093
		},
{
"user":{"id":2,"login":"dp","slug":"dp","path":"/dp","restful_url":"http://8tracks.com/users/2","avatar_urls":
{"sq56":"http://cf2.8tracks.us/avatars/000/000/002/34472.sq56.jpg","sq72":"http://cf2.8tracks.us/avatars/000/000/002/34472.sq72.jpg","sq100":"http://cf2.8tracks.us/avatars/000/000/002/34472.sq100.jpg","max200":"http://cf2.8tracks.us/avatars/000/000/002/34472.max200.jpg"}},"id":99518,"body":"@KatamariCore Big thanks!  Glad you like the mix and site.  Love a lot from all 3 of those artists.","body_html":"<p>@<a href=\"/KatamariCore\" title=\"Listen to katamaricore's latest mix\">KatamariCore</a> Big thanks!  Glad you like the mix and site.  Love a lot from all 3 of those artists.</p>","created_at":"2010-05-06T08:50:01Z","mix_id":14,"user_id":2},{"user":{"id":66361,"login":"KatamariCore","slug":"katamaricore","path":"/katamaricore","restful_url":"http://8tracks.com/users/66361","avatar_urls":{"sq56":"http://cf1.8tracks.us/avatars/000/066/361/79573.sq56.jpg","sq72":"http://cf1.8tracks.us/avatars/000/066/361/79573.sq72.jpg","sq100":"http://cf1.8tracks.us/avatars/000/066/361/79573.sq100.jpg","max200":"http://cf1.8tracks.us/avatars/000/066/361/79573.max200.jpg"}},"id":99516,"body":"Highlight for me was Stephan Bodzin – Bedford, The Ellen Alien/Apparat and Villalobos tracks are great too.  Thanks for the site too, it's a great idea and executed very well.","body_html":"<p>Highlight for me was Stephan Bodzin – Bedford, The Ellen Alien/Apparat and Villalobos tracks are great too.  Thanks for the site too, it's a great idea and executed very well.</p>","created_at":"2010-05-06T08:41:39Z","mix_id":14,"user_id":66361},{"user":{"id":2,"login":"dp","slug":"dp","path":"/dp","restful_url":"http://8tracks.com/users/2","avatar_urls":{"sq56":"http://cf2.8tracks.us/avatars/000/000/002/34472.sq56.jpg","sq72":"http://cf2.8tracks.us/avatars/000/000/002/34472.sq72.jpg","sq100":"http://cf2.8tracks.us/avatars/000/000/002/34472.sq100.jpg","max200":"http://cf2.8tracks.us/avatars/000/000/002/34472.max200.jpg"}},"id":83560,"body":"Thanks @thepenetratingeye","body_html":"<p>Thanks @<a href=\"/thepenetratingeye\" title=\"Listen to thepenetratingeye's latest mix\">thepenetratingeye</a></p>","created_at":"2010-03-10T23:21:20Z","mix_id":14,"user_id":2},{"user":{"id":59085,"login":"thepenetratingeye","slug":"thepenetratingeye","path":"/thepenetratingeye","restful_url":"http://8tracks.com/users/59085","avatar_urls":{"sq56":"http://cf1.8tracks.us/avatars/000/059/085/88890.sq56.jpg","sq72":"http://cf1.8tracks.us/avatars/000/059/085/88890.sq72.jpg","sq100":"http://cf1.8tracks.us/avatars/000/059/085/88890.sq100.jpg","max200":"http://cf1.8tracks.us/avatars/000/059/085/88890.max200.jpg"}},"id":83558,"body":"This mix warrants a firm \"hell yes\".","body_html":"<p>This mix warrants a firm \"hell yes\".</p>","created_at":"2010-03-10T23:08:40Z","mix_id":14,"user_id":59085},{"user":{"id":2,"login":"dp","slug":"dp","path":"/dp","restful_url":"http://8tracks.com/users/2","avatar_urls":{"sq56":"http://cf2.8tracks.us/avatars/000/000/002/34472.sq56.jpg","sq72":"http://cf2.8tracks.us/avatars/000/000/002/34472.sq72.jpg","sq100":"http://cf2.8tracks.us/avatars/000/000/002/34472.sq100.jpg","max200":"http://cf2.8tracks.us/avatars/000/000/002/34472.max200.jpg"}},"id":67644,"body":"@stakkit - thanks!  Glad you're enjoying the mix and 8tracks : )","body_html":"<p>@stakkit - thanks!  Glad you're enjoying the mix and 8tracks : )</p>","created_at":"2010-01-19T21:15:22Z","mix_id":14,"user_id":2},{"user":{"id":48697,"login":"stakkit","slug":"stakkit","path":"/stakkit","restful_url":"http://8tracks.com/users/48697","avatar_urls":{"sq56":"http://cf1.8tracks.us/avatars/000/048/697/93007.sq56.jpg","sq72":"http://cf1.8tracks.us/avatars/000/048/697/93007.sq72.jpg","sq100":"http://cf1.8tracks.us/avatars/000/048/697/93007.sq100.jpg","max200":"http://cf1.8tracks.us/avatars/000/048/697/93007.max200.jpg"}},"id":67539,"body":"A magic mix indeed - Helping me concentrate and focus on a truly mundane project. Focus Pocus!  Thank you for your amazing site too - my newest & favourite music resource :)","body_html":"<p>A magic mix indeed - Helping me concentrate and focus on a truly mundane project. Focus Pocus!  Thank you for your amazing site too - my newest &amp; favourite music resource :)</p>","created_at":"2010-01-19T14:11:14Z","mix_id":14,"user_id":48697},{"user":{"id":2,"login":"dp","slug":"dp","path":"/dp","restful_url":"http://8tracks.com/users/2","avatar_urls":{"sq56":"http://cf2.8tracks.us/avatars/000/000/002/34472.sq56.jpg","sq72":"http://cf2.8tracks.us/avatars/000/000/002/34472.sq72.jpg","sq100":"http://cf2.8tracks.us/avatars/000/000/002/34472.sq100.jpg","max200":"http://cf2.8tracks.us/avatars/000/000/002/34472.max200.jpg"}},"id":40886,"body":"Thx @caradactyl!","body_html":"<p>Thx @<a href=\"/caradactyl\" title=\"Listen to caradactyl's latest mix\">caradactyl</a>!</p>","created_at":"2009-09-30T01:44:21Z","mix_id":14,"user_id":2}],"total_entries":20,"current_page":1,"per_page":8,"next_page":2,"status":"200 OK","errors":null,"notices":null,"logged_in":true}